script_analises_sisdim
…
Quantidade de nascidos por ano.

nv_mes |> 
  group_by(ano) |> 
  summarise(qtd_anual = sum(qtd)) 

# A tibble: 22 × 2
     ano qtd_anual
   <dbl>     <dbl>
 1  2010      5731
 2  2011      6004
 3  2012      6140
 4  2013      6171
 5  2014      6333
 6  2015      6249
 7  2016      6336
 8  2017      6641
 9  2018      6706
10  2019      6539
# ℹ 12 more rows
…
